<svg width="214" height="27" viewBox="0 0 214 27" fill="none" xmlns="http://www.w3.org/2000/svg">
<path d="M29.36 26H20.48L24.16 8.72L14.68 26H9.24L7.44 8.12L3.6 26H0L5.4 0.599998H15.6L16.84 14.92L24.52 0.599998H34.8L29.36 26ZM42.2356 17.96C42.129 18.5467 42.049 19.1067 41.9956 19.64C41.969 20.1733 41.9556 20.6533 41.9556 21.08C41.9556 21.32 41.969 21.5867 41.9956 21.88C42.0223 22.1733 42.0756 22.4533 42.1556 22.72C42.2623 22.96 42.3956 23.1733 42.5556 23.36C42.7423 23.52 42.9956 23.6 43.3156 23.6C43.5556 23.6 43.8223 23.52 44.1156 23.36C44.4356 23.2 44.7423 22.9733 45.0356 22.68C45.3556 22.3867 45.649 22.0267 45.9156 21.6C46.209 21.1733 46.4356 20.6933 46.5956 20.16H53.1556L52.1156 24.44C51.5823 24.7867 50.969 25.08 50.2756 25.32C49.5823 25.56 48.849 25.76 48.0756 25.92C47.3023 26.0533 46.5156 26.1467 45.7156 26.2C44.9156 26.28 44.1556 26.32 43.4356 26.32C42.1023 26.32 40.8623 26.2 39.7156 25.96C38.569 25.72 37.569 25.3067 36.7156 24.72C35.8623 24.1333 35.1823 23.36 34.6756 22.4C34.1956 21.4133 33.9556 20.2 33.9556 18.76C33.9556 17.4533 34.1556 16.1733 34.5556 14.92C34.9823 13.6667 35.6756 12.56 36.6356 11.6C37.6223 10.6133 38.929 9.82667 40.5556 9.24C42.209 8.65333 44.2623 8.36 46.7156 8.36C49.3823 8.36 51.3823 8.77333 52.7156 9.6C54.0756 10.4267 54.7556 11.72 54.7556 13.48C54.7556 14.2 54.649 14.9867 54.4356 15.84C54.2223 16.6667 53.9023 17.3733 53.4756 17.96H42.2356ZM47.5556 13.2C47.5556 12.3733 47.4223 11.8133 47.1556 11.52C46.889 11.2267 46.569 11.08 46.1956 11.08C45.769 11.08 45.369 11.2267 44.9956 11.52C44.649 11.7867 44.329 12.16 44.0356 12.64C43.7423 13.0933 43.4756 13.6267 43.2356 14.24C42.9956 14.8267 42.7956 15.4533 42.6356 16.12H47.1956C47.249 15.8 47.3023 15.4667 47.3556 15.12C47.409 14.8267 47.449 14.5067 47.4756 14.16C47.529 13.8133 47.5556 13.4933 47.5556 13.2ZM66.1106 11.36C66.6706 10.8267 67.2973 10.3333 67.9906 9.88C68.604 9.50667 69.3373 9.16 70.1906 8.84C71.044 8.52 72.004 8.36 73.0706 8.36C74.3506 8.36 75.2973 8.65333 75.9106 9.24C76.5506 9.82667 76.9106 10.5467 76.9906 11.4H77.2306C77.844 10.84 78.5106 10.3333 79.2306 9.88C79.844 9.50667 80.564 9.16 81.3906 8.84C82.2173 8.52 83.0973 8.36 84.0306 8.36C85.4173 8.36 86.5373 8.74667 87.3906 9.52C88.2706 10.2667 88.7106 11.24 88.7106 12.44C88.7106 13.0533 88.604 13.8667 88.3906 14.88C88.1773 15.8933 87.9373 17 87.6706 18.2L85.9906 26H78.1106L80.2706 15.56C80.3506 15.16 80.4306 14.7733 80.5106 14.4C80.5906 14.0267 80.6306 13.72 80.6306 13.48C80.6306 13.1067 80.524 12.8 80.3106 12.56C80.0973 12.2933 79.7906 12.16 79.3906 12.16C78.884 12.16 78.404 12.3467 77.9506 12.72C77.524 13.0667 77.1906 13.36 76.9506 13.6L74.3506 26H66.8706L69.0706 15.56C69.124 15.2133 69.1906 14.8667 69.2706 14.52C69.3506 14.1467 69.3906 13.8133 69.3906 13.52C69.3906 13.12 69.284 12.8 69.0706 12.56C68.884 12.2933 68.5906 12.16 68.1906 12.16C67.7106 12.16 67.244 12.3333 66.7906 12.68C66.364 13.0267 66.0306 13.32 65.7906 13.56L63.1506 26H54.9906L58.6306 8.8H65.1506L65.8706 11.36H66.1106ZM98.5638 17.96C98.4571 18.5467 98.3771 19.1067 98.3238 19.64C98.2971 20.1733 98.2838 20.6533 98.2838 21.08C98.2838 21.32 98.2971 21.5867 98.3238 21.88C98.3504 22.1733 98.4038 22.4533 98.4838 22.72C98.5904 22.96 98.7238 23.1733 98.8838 23.36C99.0704 23.52 99.3238 23.6 99.6438 23.6C99.8838 23.6 100.15 23.52 100.444 23.36C100.764 23.2 101.07 22.9733 101.364 22.68C101.684 22.3867 101.977 22.0267 102.244 21.6C102.537 21.1733 102.764 20.6933 102.924 20.16H109.484L108.444 24.44C107.91 24.7867 107.297 25.08 106.604 25.32C105.91 25.56 105.177 25.76 104.404 25.92C103.63 26.0533 102.844 26.1467 102.044 26.2C101.244 26.28 100.484 26.32 99.7638 26.32C98.4304 26.32 97.1904 26.2 96.0438 25.96C94.8971 25.72 93.8971 25.3067 93.0438 24.72C92.1904 24.1333 91.5104 23.36 91.0038 22.4C90.5238 21.4133 90.2838 20.2 90.2838 18.76C90.2838 17.4533 90.4838 16.1733 90.8838 14.92C91.3104 13.6667 92.0038 12.56 92.9638 11.6C93.9504 10.6133 95.2571 9.82667 96.8838 9.24C98.5371 8.65333 100.59 8.36 103.044 8.36C105.71 8.36 107.71 8.77333 109.044 9.6C110.404 10.4267 111.084 11.72 111.084 13.48C111.084 14.2 110.977 14.9867 110.764 15.84C110.55 16.6667 110.23 17.3733 109.804 17.96H98.5638ZM103.884 13.2C103.884 12.3733 103.75 11.8133 103.484 11.52C103.217 11.2267 102.897 11.08 102.524 11.08C102.097 11.08 101.697 11.2267 101.324 11.52C100.977 11.7867 100.657 12.16 100.364 12.64C100.07 13.0933 99.8038 13.6267 99.5638 14.24C99.3238 14.8267 99.1238 15.4533 98.9638 16.12H103.524C103.577 15.8 103.63 15.4667 103.684 15.12C103.737 14.8267 103.777 14.5067 103.804 14.16C103.857 13.8133 103.884 13.4933 103.884 13.2ZM112.886 8.8H121.366L123.006 20.56L128.846 8.8H133.086L124.006 26H115.646L112.886 8.8ZM140.361 17.96C140.254 18.5467 140.174 19.1067 140.121 19.64C140.094 20.1733 140.081 20.6533 140.081 21.08C140.081 21.32 140.094 21.5867 140.121 21.88C140.147 22.1733 140.201 22.4533 140.281 22.72C140.387 22.96 140.521 23.1733 140.681 23.36C140.867 23.52 141.121 23.6 141.441 23.6C141.681 23.6 141.947 23.52 142.241 23.36C142.561 23.2 142.867 22.9733 143.161 22.68C143.481 22.3867 143.774 22.0267 144.041 21.6C144.334 21.1733 144.561 20.6933 144.721 20.16H151.281L150.241 24.44C149.707 24.7867 149.094 25.08 148.401 25.32C147.707 25.56 146.974 25.76 146.201 25.92C145.427 26.0533 144.641 26.1467 143.841 26.2C143.041 26.28 142.281 26.32 141.561 26.32C140.227 26.32 138.987 26.2 137.841 25.96C136.694 25.72 135.694 25.3067 134.841 24.72C133.987 24.1333 133.307 23.36 132.801 22.4C132.321 21.4133 132.081 20.2 132.081 18.76C132.081 17.4533 132.281 16.1733 132.681 14.92C133.107 13.6667 133.801 12.56 134.761 11.6C135.747 10.6133 137.054 9.82667 138.681 9.24C140.334 8.65333 142.387 8.36 144.841 8.36C147.507 8.36 149.507 8.77333 150.841 9.6C152.201 10.4267 152.881 11.72 152.881 13.48C152.881 14.2 152.774 14.9867 152.561 15.84C152.347 16.6667 152.027 17.3733 151.601 17.96H140.361ZM145.681 13.2C145.681 12.3733 145.547 11.8133 145.281 11.52C145.014 11.2267 144.694 11.08 144.321 11.08C143.894 11.08 143.494 11.2267 143.121 11.52C142.774 11.7867 142.454 12.16 142.161 12.64C141.867 13.0933 141.601 13.6267 141.361 14.24C141.121 14.8267 140.921 15.4533 140.761 16.12H145.321C145.374 15.8 145.427 15.4667 145.481 15.12C145.534 14.8267 145.574 14.5067 145.601 14.16C145.654 13.8133 145.681 13.4933 145.681 13.2ZM156.756 8.8H163.276L163.876 11.8H164.156C164.769 10.84 165.556 10.0267 166.516 9.36C167.476 8.69333 168.742 8.36 170.316 8.36C170.422 8.36 170.582 8.37333 170.796 8.4C171.036 8.4 171.289 8.44 171.556 8.52C171.849 8.57333 172.142 8.66667 172.436 8.8C172.756 8.90667 173.062 9.06667 173.356 9.28L171.596 17.52H167.236C167.182 15.8667 167.036 14.72 166.796 14.08C166.556 13.4133 166.169 13.08 165.636 13.08C165.369 13.08 165.076 13.1467 164.756 13.28C164.462 13.3867 164.156 13.64 163.836 14.04L161.276 26H153.116L156.756 8.8ZM185.132 13.84C185.158 13.7067 185.185 13.5733 185.212 13.44C185.238 13.3067 185.252 13.16 185.252 13C185.252 12.52 185.158 12.08 184.972 11.68C184.812 11.2533 184.478 11.04 183.972 11.04C183.518 11.04 183.065 11.24 182.612 11.64C182.158 12.0133 181.932 12.52 181.932 13.16C181.932 13.5867 182.038 13.9333 182.252 14.2C182.492 14.44 182.798 14.64 183.172 14.8C183.545 14.96 183.958 15.0933 184.412 15.2C184.892 15.3067 185.358 15.4133 185.812 15.52C186.452 15.68 187.052 15.88 187.612 16.12C188.198 16.3333 188.718 16.6267 189.172 17C189.625 17.3733 189.985 17.84 190.252 18.4C190.518 18.9333 190.652 19.6 190.652 20.4C190.652 21.52 190.385 22.4667 189.852 23.24C189.345 23.9867 188.625 24.6 187.692 25.08C186.785 25.5333 185.705 25.8533 184.452 26.04C183.225 26.2267 181.905 26.32 180.492 26.32C178.332 26.32 176.545 26.16 175.132 25.84C173.718 25.52 172.732 25.2133 172.172 24.92L173.012 20.92H178.412C178.385 21.0533 178.372 21.1867 178.372 21.32C178.372 21.4267 178.372 21.5467 178.372 21.68C178.372 22.2933 178.505 22.7867 178.772 23.16C179.065 23.5067 179.558 23.68 180.252 23.68C181.025 23.68 181.572 23.4667 181.892 23.04C182.238 22.5867 182.412 22.1733 182.412 21.8C182.412 21.4267 182.265 21.1067 181.972 20.84C181.705 20.5467 181.358 20.3067 180.932 20.12C180.505 19.9067 180.025 19.7333 179.492 19.6C178.985 19.44 178.492 19.2933 178.012 19.16C177.665 19.08 177.265 18.9467 176.812 18.76C176.385 18.5733 175.972 18.3067 175.572 17.96C175.172 17.6133 174.838 17.1733 174.572 16.64C174.305 16.08 174.172 15.3867 174.172 14.56C174.172 13.3867 174.452 12.4133 175.012 11.64C175.598 10.84 176.345 10.2 177.252 9.72C178.185 9.24 179.225 8.89333 180.372 8.68C181.545 8.46667 182.718 8.36 183.892 8.36C185.358 8.36 186.745 8.49333 188.052 8.76C189.358 9.02667 190.425 9.37333 191.252 9.8L190.332 13.84H185.132ZM200.908 17.96C200.801 18.5467 200.721 19.1067 200.668 19.64C200.641 20.1733 200.628 20.6533 200.628 21.08C200.628 21.32 200.641 21.5867 200.668 21.88C200.694 22.1733 200.748 22.4533 200.828 22.72C200.934 22.96 201.068 23.1733 201.228 23.36C201.414 23.52 201.668 23.6 201.988 23.6C202.228 23.6 202.494 23.52 202.788 23.36C203.108 23.2 203.414 22.9733 203.708 22.68C204.028 22.3867 204.321 22.0267 204.588 21.6C204.881 21.1733 205.108 20.6933 205.268 20.16H211.828L210.788 24.44C210.254 24.7867 209.641 25.08 208.948 25.32C208.254 25.56 207.521 25.76 206.748 25.92C205.974 26.0533 205.188 26.1467 204.388 26.2C203.588 26.28 202.828 26.32 202.108 26.32C200.774 26.32 199.534 26.2 198.388 25.96C197.241 25.72 196.241 25.3067 195.388 24.72C194.534 24.1333 193.854 23.36 193.348 22.4C192.868 21.4133 192.628 20.2 192.628 18.76C192.628 17.4533 192.828 16.1733 193.228 14.92C193.654 13.6667 194.348 12.56 195.308 11.6C196.294 10.6133 197.601 9.82667 199.228 9.24C200.881 8.65333 202.934 8.36 205.388 8.36C208.054 8.36 210.054 8.77333 211.388 9.6C212.748 10.4267 213.428 11.72 213.428 13.48C213.428 14.2 213.321 14.9867 213.108 15.84C212.894 16.6667 212.574 17.3733 212.148 17.96H200.908ZM206.228 13.2C206.228 12.3733 206.094 11.8133 205.828 11.52C205.561 11.2267 205.241 11.08 204.868 11.08C204.441 11.08 204.041 11.2267 203.668 11.52C203.321 11.7867 203.001 12.16 202.708 12.64C202.414 13.0933 202.148 13.6267 201.908 14.24C201.668 14.8267 201.468 15.4533 201.308 16.12H205.868C205.921 15.8 205.974 15.4667 206.028 15.12C206.081 14.8267 206.121 14.5067 206.148 14.16C206.201 13.8133 206.228 13.4933 206.228 13.2Z" fill="white"/>
</svg>
