<svg width="31" height="25" viewBox="0 0 31 25" fill="none" xmlns="http://www.w3.org/2000/svg">
<path d="M30.2462 0.537924C30.1376 0.220663 30.009 0.134917 29.806 0.0577455C29.363 -0.110889 28.6142 0.143492 28.6142 0.143492C28.6142 0.143492 2.05859 9.68704 0.543738 10.7446C0.217902 10.9732 0.106432 11.1047 0.0521263 11.2591C-0.210829 12.0108 0.606618 12.3423 0.606618 12.3423L7.45202 14.5717C7.45202 14.5717 7.7064 14.6089 7.79786 14.5517C9.35559 13.5685 23.4637 4.65946 24.2754 4.35934C24.404 4.32219 24.4984 4.36506 24.4726 4.45367C24.1468 5.59695 11.8937 16.4896 11.8937 16.4896C11.8937 16.4896 11.8479 16.5467 11.8165 16.6153L11.7994 16.6068L11.162 23.395C11.162 23.395 10.8933 25.4758 12.9741 23.395C14.4403 21.9287 15.8609 20.6997 16.5726 20.1023C18.9249 21.7258 21.4601 23.5236 22.5519 24.464C23.1007 24.9356 23.5609 25.0127 23.9382 24.9984C24.9757 24.9584 25.2644 23.8209 25.2644 23.8209C25.2644 23.8209 30.1033 4.34505 30.2662 1.73551C30.2834 1.48113 30.3034 1.31821 30.3062 1.14101C30.3091 0.898058 30.2862 0.65511 30.2462 0.537924Z" fill="white"/>
</svg>
